id,name,model_id:id,group_id:id,perm_read,perm_write,perm_create,perm_unlink
access_privacy_data_store,privacy.data.store,model_privacy_data_store,base.group_user,1,1,1,1
access_privacy_data_process,privacy.data.process,model_privacy_data_process,base.group_user,1,1,1,1
